Campaign Name	Geo Targeting	ID	Currency	Budget	Ad Group	Max CPC	Language	Networks	Keyword	Keyword Type	Segmentation	Avg. Monthly Searches (exact match only)	Competition	Suggested bid	Impr. Share	Estimated Clicks	Estimated Impressions	Estimated Cost	Estimated CTR	Estimated Average CPC	Estimated Average Position
Draft Campaign			USD					Google Search			Total - All Devices	633600			 --	2507.91	130000	10570.2	1.90%	4.21	1
Draft Campaign			USD								Total - Desktop Only				 --	856.71	52175.24	4001.81	1.60%	4.67	1
Draft Campaign			USD								Total - Mobile Only				 --	1434.51	64294.39	5572.68	2.20%	3.88	1
Draft Campaign			USD								Total - Tablet Only				 --	216.69	13530.37	995.7	1.60%	4.6	1
Draft Campaign			USD		Little Caesars	100					Ad Group Total				 --	2507.91	130000	10570.2	1.90%	4.21	1
Draft Campaign			USD		Little Caesars				delivery pizza	Broad		8100	0.32	1.9	 --	444.25	20684.04	1413.92	2.10%	3.18	1
Draft Campaign			USD		Little Caesars				pizza places near me	Broad		135000	0.24	2.8	 --	641.02	38488.91	3282.86	1.70%	5.12	1
Draft Campaign			USD		Little Caesars				pizza near me	Broad		201000	0.21	3.29	 --	648	39350.65	3319.37	1.60%	5.12	1
Draft Campaign			USD		Little Caesars				pizza online	Broad		74000	0.17	0.15	 --	292.12	8529.99	1262.84	3.40%	4.32	1
Draft Campaign			USD		Little Caesars				pizza place	Broad		18100	0.17	2.4	 --	31.87	2780.65	151.42	1.10%	4.75	1
Draft Campaign			USD		Little Caesars				online pizza	Broad		8100	0.33	0.33	 --	49.75	1869.39	168.71	2.70%	3.39	1
Draft Campaign			USD		Little Caesars				pizzerias	Broad		8100	0.19	0.71	 --	220.82	10374	358.97	2.10%	1.63	1
Draft Campaign			USD		Little Caesars				pizza shop	Broad		8100	0.11	1.27	 --	21.13	964.83	56.3	2.20%	2.66	1
Draft Campaign			USD		Little Caesars				pizza king	Broad		90500	0.07	0.24	 --	44.17	1919.79	239.08	2.30%	5.41	1
Draft Campaign			USD		Little Caesars				pizza plus	Broad		33100	0.03	0.98	 --	5.1	127.06	15	4.00%	2.94	1
Draft Campaign			USD		Little Caesars				pizza time	Broad		49500	0.06	0.56	 --	109.68	4910.68	301.73	2.20%	2.75	1
